%YAML 1.1
%TAG !u! tag:unity3d.com,2011:
--- !u!1001 &100100000
Prefab:
  m_ObjectHideFlags: 1
  serializedVersion: 2
  m_Modification:
    m_TransformParent: {fileID: 0}
    m_Modifications: []
    m_RemovedComponents: []
  m_SourcePrefab: {fileID: 0}
  m_RootGameObject: {fileID: 1748597650993548}
  m_IsPrefabAsset: 1
--- !u!1 &1748597650993548
GameObject:
  m_ObjectHideFlags: 0
  m_CorrespondingSourceObject: {fileID: 0}
  m_PrefabInternal: {fileID: 100100000}
  serializedVersion: 6
  m_Component:
  - component: {fileID: 4464941655179348}
  - component: {fileID: 114693596846911432}
  m_Layer: 0
  m_Name: Mushroom Evolution
  m_TagString: Untagged
  m_Icon: {fileID: 0}
  m_NavMeshLayer: 0
  m_StaticEditorFlags: 0
  m_IsActive: 1
--- !u!4 &4464941655179348
Transform:
  m_ObjectHideFlags: 1
  m_CorrespondingSourceObject: {fileID: 0}
  m_PrefabInternal: {fileID: 100100000}
  m_GameObject: {fileID: 1748597650993548}
  m_LocalRotation: {x: 0, y: 0, z: 0, w: 1}
  m_LocalPosition: {x: 4.2655983, y: -4.3287454, z: 6.585216}
  m_LocalScale: {x: 1, y: 1, z: 1}
  m_Children: []
  m_Father: {fileID: 0}
  m_RootOrder: 0
  m_LocalEulerAnglesHint: {x: 0, y: 0, z: 0}
--- !u!114 &114693596846911432
MonoBehaviour:
  m_ObjectHideFlags: 1
  m_CorrespondingSourceObject: {fileID: 0}
  m_PrefabInternal: {fileID: 100100000}
  m_GameObject: {fileID: 1748597650993548}
  m_Enabled: 1
  m_EditorHideFlags: 0
  m_Script: {fileID: 11500000, guid: 6121ed87d37b508448e4b42cea6680ad, type: 3}
  m_Name: 
  m_EditorClassIdentifier: 
  currentPlant: {fileID: 0}
  evolutionPrefabs:
  - {fileID: 1447761322546684, guid: b98e1d30ae8946c45bfa21489385746c, type: 2}
  - {fileID: 1094045088882272, guid: 83327312d50152e4381de5523c359223, type: 2}
  - {fileID: 1865014276997750, guid: 63886c00539bc2e4b84e390680c9e1cd, type: 2}
  currentPlantIndex: 0
  evolutionSmokeEffect: {fileID: 1838103767323648, guid: 6e2fd14266331da40a7b3f0ba9963e9e,
    type: 2}
  ItemType: 1
  RewardCount: 2
